<?xml version="1.0" encoding="UTF-8" standalone="no"?>
<svg xmlns="http://www.w3.org/2000/svg" height="31px" width="30px" version="1.1"
     xmlns:xlink="http://www.w3.org/1999/xlink"
     viewBox="0 0 30 31"><!-- Generator: Sketch 39.1 (31720) - http://www.bohemiancoding.com/sketch -->
    <title>Shape</title>
    <desc>Created with Sketch.</desc>
    <g id="Prunto-main-page" fill-rule="evenodd" fill="none">
        <g id="Prunto-desktop-tablet-768" fill="#fff" transform="translate(-215 -1867)">
            <g id="Group-10" transform="translate(190 1855)">
                <path id="Shape"
                      d="m25 21.807v20.344h6.519v-0.016h3.562c0.178 0.028 0.345 0.042 0.51 0.042h12.373c1.844 0 3.343-1.5 3.343-3.343 0-0.499-0.109-0.983-0.315-1.422 1.141-0.536 1.913-1.693 1.913-3.025 0-0.684-0.21-1.338-0.584-1.885 1.136-0.535 1.924-1.691 1.924-3.027 0-0.721-0.231-1.41-0.645-1.975 0.858-0.616 1.4-1.621 1.4-2.718 0-1.843-1.499-3.343-3.343-3.343h-8.111c1.41-1.927 2.197-4.197 2.197-6.416 0-1.667-1.356-3.023-3.023-3.023-1.614 0-2.276 1.342-2.808 2.421l-0.138 0.277c-1.737 3.459-3.604 6.587-7.314 6.875-1.039 0.08-1.519 0.152-1.79 0.233h-1.23-4.44v0.001zm6.519 1.307c0.215-0.027 0.532-0.059 1.012-0.096 4.499-0.349 6.681-3.98 8.535-7.67l0.142-0.288c0.554-1.122 0.865-1.614 1.512-1.614 0.87 0 1.577 0.707 1.577 1.577 0 2.342-1.028 4.762-2.82 6.64-0.2 0.21-0.255 0.518-0.141 0.784 0.113 0.266 0.375 0.438 0.664 0.438h9.656c1.047 0 1.898 0.852 1.898 1.898 0 0.845-0.569 1.595-1.382 1.824-0.272 0.076-0.473 0.303-0.518 0.581s0.075 0.556 0.309 0.714c0.524 0.354 0.836 0.942 0.836 1.573 0 1.046-0.851 1.898-1.897 1.898h-0.072c-0.33 0-0.618 0.222-0.7 0.542s0.061 0.654 0.349 0.814c0.605 0.334 0.98 0.97 0.98 1.659 0 0.978-0.733 1.789-1.703 1.888-0.277 0.028-0.513 0.212-0.608 0.474-0.094 0.261-0.03 0.555 0.166 0.753 0.353 0.358 0.548 0.831 0.548 1.332 0 1.046-0.851 1.898-1.898 1.898h-12.373c-0.101 0-0.208-0.011-0.328-0.031-0.041-0.008-0.082-0.011-0.123-0.011h-3.621v-17.577zm-5.073 0.139h3.627v17.452h-3.627v-17.452z"/>
            </g>
        </g>
    </g>
</svg>
