<?xml version="1.0" encoding="UTF-8"?>
<svg width="24px" height="24px" viewBox="0 0 24 24" version="1.1" xmlns="http://www.w3.org/2000/svg" xmlns:xlink="http://www.w3.org/1999/xlink">
    <!-- Generator: Sketch 43.1 (39012) - http://www.bohemiancoding.com/sketch -->
    <title>Icon small attention </title>
    <desc>Created with Sketch.</desc>
    <defs></defs>
    <g id="Components-and-Forms" stroke="none" stroke-width="1" fill="none" fill-rule="evenodd">
        <g id="Prunto-UI-Kit" transform="translate(-262.000000, -4485.000000)">
            <g id="X-close-sign" transform="translate(256.000000, 4479.000000)">
                <rect id="max" fill-opacity="0" fill="#FFFFFF" x="0" y="0" width="36" height="36"></rect>
                <path d="M18.9848024,18 L29.5714286,7.41337386 L28.5866261,6.42857143 L18,17.0151976 L7.41337386,6.42857143 L6.42857143,7.41337386 L17.0151976,18 L6.42857143,28.5866261 L7.41337386,29.5714286 L18,18.9848024 L28.5866261,29.5714286 L29.5714286,28.5866261 L18.9848024,18 Z" id="Combined-Shape" fill-opacity="0.9" fill="#000000"></path>
            </g>
        </g>
    </g>
</svg>