<?xml version="1.0" encoding="UTF-8"?>
<svg width="36px" height="36px" viewBox="0 0 36 36" version="1.1" xmlns="http://www.w3.org/2000/svg" xmlns:xlink="http://www.w3.org/1999/xlink">
    <!-- Generator: Sketch 43.1 (39012) - http://www.bohemiancoding.com/sketch -->
    <title>Icon small percents</title>
    <desc>Created with Sketch.</desc>
    <defs></defs>
    <g id="Components-and-Forms" stroke="none" stroke-width="1" fill="none" fill-rule="evenodd">
        <g id="Prunto-UI-Kit" transform="translate(-339.000000, -13511.000000)">
            <g id="Icon-percents" transform="translate(339.000000, 13511.000000)">
                <g id="Group-2">
                    <rect id="Rectangle" x="0" y="0" width="36" height="36"></rect>
                    <path d="M18,36 C27.9411255,36 36,27.9411255 36,18 C36,8.0588745 27.9411255,0 18,0 C8.0588745,0 0,8.0588745 0,18 C0,27.9411255 8.0588745,36 18,36 Z" id="Path" fill="#FFE02C"></path>
                    <path d="M12.0193101,12.0193044 C11.1935438,12.8450834 11.1935896,14.1839789 12.0192897,15.0096169 C12.8450455,15.835396 14.1839015,15.8354665 15.0096326,15.0096169 C15.835399,14.1839084 15.8353884,12.8450129 15.0096516,12.0193044 C14.1839332,11.1935958 12.8450772,11.1935958 12.0193101,12.0193044 Z M12.1854473,22.1532632 C11.7266956,22.6120489 11.7266686,23.3557622 12.1854408,23.814548 C12.6441543,24.2732749 13.3879956,24.2733337 13.8467467,23.814548 L23.8145299,13.8467219 C24.2732809,13.3879362 24.2732639,12.6441641 23.8145357,12.1854372 C23.3557788,11.7266514 22.6119815,11.7266514 22.1532298,12.1854372 L12.1854473,22.1532632 L12.1854473,22.1532632 Z M20.9903472,20.9903831 C20.1645809,21.8160916 20.1645914,23.1549166 20.9903282,23.9806956 C21.8160995,24.8064042 23.1549033,24.8064042 23.9806704,23.9806956 C24.8064367,23.1549166 24.8064431,21.8160916 23.9806901,20.9903831 C23.1549343,20.164604 21.8160784,20.1645335 20.9903472,20.9903831 Z" id="Shape" fill-opacity="0.9" fill="#000000" fill-rule="nonzero"></path>
                </g>
            </g>
        </g>
    </g>
</svg>