<?xml version="1.0" encoding="UTF-8"?>
<svg width="20px" height="20px" viewBox="0 0 20 20" version="1.1" xmlns="http://www.w3.org/2000/svg" xmlns:xlink="http://www.w3.org/1999/xlink">
    <!-- Generator: Sketch 44.1 (41455) - http://www.bohemiancoding.com/sketch -->
    <title>Rouble sign</title>
    <desc>Created with Sketch.</desc>
    <defs></defs>
    <g id="Page-1" stroke="none" stroke-width="1" fill="none" fill-rule="evenodd" fill-opacity="0.9">
        <g id="Prunto.-Desktop.-Drop-menu" transform="translate(-998.000000, -88.000000)" fill="#000000">
            <g id="Rouble-sign" transform="translate(998.000000, 88.000000)">
                <g id="Group">
                    <g id="Group-2" fill-rule="nonzero">
                        <path d="M10,18.4444444 C14.6637379,18.4444444 18.4444444,14.6637379 18.4444444,10 C18.4444444,5.33626211 14.6637379,1.55555556 10,1.55555556 C5.33626211,1.55555556 1.55555556,5.33626211 1.55555556,10 C1.55555556,14.6637379 5.33626211,18.4444444 10,18.4444444 Z M10,20 C4.4771525,20 0,15.5228475 0,10 C0,4.4771525 4.4771525,0 10,0 C15.5228475,0 20,4.4771525 20,10 C20,15.5228475 15.5228475,20 10,20 Z" id="Oval"></path>
                    </g>
                    <path d="M5.782,10.828 L5.782,9.54 L7.154,9.54 L7.154,5.2 C7.7,5.2 9.24,5.172 9.926,5.172 C12.824,5.172 13.72,6.432 13.72,8.042 C13.72,9.722 12.474,10.828 10.15,10.828 L8.862,10.828 L8.862,11.99 L11.158,11.99 L11.158,13.278 L8.862,13.278 L8.862,15 L7.154,15 L7.154,13.278 L5.782,13.278 L5.782,11.99 L7.154,11.99 L7.154,10.828 L5.782,10.828 Z M10.108,6.782 C9.758,6.782 9.324,6.796 8.862,6.81 L8.862,9.54 L10.094,9.54 C11.102,9.54 11.9,9.19 11.9,8.196 C11.9,7.174 11.27,6.782 10.108,6.782 Z" id="₽"></path>
                </g>
            </g>
        </g>
    </g>
</svg>