<?xml version="1.0" encoding="UTF-8"?>
<svg width="18px" height="20px" viewBox="0 0 18 20" version="1.1" xmlns="http://www.w3.org/2000/svg" xmlns:xlink="http://www.w3.org/1999/xlink">
    <!-- Generator: Sketch 44.1 (41455) - http://www.bohemiancoding.com/sketch -->
    <title>Icon Button Log Out</title>
    <desc>Created with Sketch.</desc>
    <defs></defs>
    <g id="Components-and-Forms" stroke="none" stroke-width="1" fill="none" fill-rule="evenodd">
        <g id="Prunto-UI-Kit" transform="translate(-614.000000, -4487.000000)">
            <g id="Icon-Button-Log-Out" transform="translate(613.000000, 4487.000000)">
                <rect id="Rectangle-10" x="0" y="0" width="20" height="20"></rect>
                <g id="Group-2" stroke-width="1" fill-rule="evenodd" transform="translate(1.000000, 0.000000)" fill-opacity="0.9" fill="#000000">
                    <path d="M0.692367324,4.25942024e-06 L9.92313655,4.25942024e-06 C10.2856058,4.14686973e-05 10.6153981,0.332387755 10.6154442,0.697678205 L10.6154442,19.3023261 C10.6153981,19.6676049 10.2856058,19.9999535 9.92313655,20 L0.692367324,20 C0.329875016,19.9999535 0.000105785097,19.6676049 5.96312511e-05,19.3023261 L5.96312511e-05,16.0564445 C-0.00501729183,15.6878634 0.326575016,15.3488404 0.692367324,15.3488404 C1.05815963,15.3488404 1.38984425,15.6878634 1.38467502,16.0564445 L1.38467502,18.6046521 L9.23082886,18.6046521 L9.23082886,1.39535215 L1.38467502,1.39535215 L1.38467502,2.93192553 C1.38975194,3.30051597 1.05815963,3.63953668 0.692367324,3.63953668 C0.326575016,3.63953668 -0.00510959952,3.30051597 5.9631251e-05,2.93192553 L5.96312511e-05,0.697678205 C0.00236732356,0.316741254 0.363659631,-0.00134225129 0.692367324,4.25942024e-06 Z" id="Shape" fill-rule="nonzero" transform="translate(5.307722, 10.000000) scale(-1, 1) translate(-5.307722, -10.000000) "></path>
                    <path d="M17.9999979,9.99879318 C17.9935364,9.83442536 17.925621,9.64444835 17.8124979,9.52463226 L14.1201902,5.61640467 C13.8699902,5.39242766 13.390221,5.29996789 13.1105748,5.55893341 C12.8351287,5.81399088 12.843321,6.30865754 13.1177287,6.56472651 L15.7138825,9.30911731 L3.92307253,9.30911731 C3.54073407,9.30911731 3.23076484,9.61789662 3.23076484,9.99879318 C3.23076484,10.3796897 3.54073407,10.6884713 3.92307253,10.6884713 L15.7138825,10.6884713 L13.1177287,13.4328621 C12.8814902,13.6686093 12.8378287,14.1806782 13.1105748,14.4386552 C13.3832518,14.6966093 13.8802595,14.6141955 14.1201902,14.381161 L17.8124979,10.4729541 C17.9388441,10.339207 18.0004133,10.1822874 17.9999979,9.99879318 L17.9999979,9.99879318 Z" id="Shape" fill-rule="nonzero"></path>
                </g>
            </g>
        </g>
    </g>
</svg>