<?xml version="1.0" encoding="UTF-8"?>
<svg width="80px" height="100px" viewBox="0 0 80 100" version="1.1" xmlns="http://www.w3.org/2000/svg" xmlns:xlink="http://www.w3.org/1999/xlink">
    <!-- Generator: Sketch 43.1 (39012) - http://www.bohemiancoding.com/sketch -->
    <title>Group 13</title>
    <desc>Created with Sketch.</desc>
    <defs></defs>
    <g id="Page-1" stroke="none" stroke-width="1" fill="none" fill-rule="evenodd">
        <g id="3.1.-Prunto-desktop.-Loan-result.-Approved" transform="translate(-680.000000, -107.000000)">
            <g id="Group-13" transform="translate(670.000000, 107.000000)">
                <rect id="Rectangle-19" x="0" y="0" width="100" height="100"></rect>
                <g id="Group-10" transform="translate(10.000000, 0.000000)">
                    <path d="M40,100 C62.09139,100 80,82.09139 80,60 C80,37.90861 62.09139,20 40,20 C17.90861,20 0,37.90861 0,60 C0,82.09139 17.90861,100 40,100 Z" id="Path-Copy" fill="#0CCE6B"></path>
                    <g id="Group-9" transform="translate(11.000000, 0.000000)">
                        <g id="Group-9-Copy">
                            <g id="Group-8">
                                <path d="M16.9765788,0.218329792 L14.3807515,0.909689472 C11.2019968,1.7685628 8.5878556,3.78404743 7.03825996,7.05784845 L6.74158869,6.39117786 L5.62909591,3.97141898 L4.36826206,6.31709972 C1.32623482,12.0214101 0.343159187,16.6993444 0.734101571,20.5393404 C1.05791133,23.7199562 2.35795491,26.2538464 4.0468709,28.2183642 C2.29094213,31.1742103 1.97729705,34.4726786 2.51409654,37.4282635 C3.10547806,40.6843067 4.68087216,43.5742137 6.64270916,45.5023018 L6.76631946,45.3789107 L6.64270916,49.6010817 C6.24811708,49.4302493 5.82634293,49.3153455 5.40659518,49.2553909 L5.3325118,49.2553909 L5.23358869,49.2553909 C3.78457213,49.2336289 2.51330124,50.0053124 1.67359874,51.1072356 C0.83389625,52.2092676 0.362562497,53.6622132 0.338594343,55.2307154 C0.314626189,56.7983472 0.744810978,58.2545572 1.54998843,59.3788953 C2.355155,60.5032334 3.61462703,61.3074513 5.06053861,61.3295398 C5.49831695,61.3404208 5.9217035,61.2599011 6.32137247,61.13194 L5.75271712,80.4653764 C5.74447371,80.4652993 5.73622975,80.4652993 5.72798634,80.4653764 C5.68538839,82.4668354 6.4580999,84.2992029 7.73049294,85.7987194 C9.00288598,87.2982359 10.7684674,88.5210474 12.8232572,89.5024086 C16.9328587,91.4651311 22.2744452,92.5319085 27.7060211,92.6876162 C33.137608,92.8433239 38.6475707,92.0739254 43.0585063,90.1937901 C47.4694311,88.3136547 50.9084908,85.1554322 51.4887708,80.6628673 C51.4937142,80.5971296 51.4937142,80.5311141 51.4887708,80.4653764 L50.920159,61.13194 C51.3300253,61.26458 51.7594802,61.336286 52.2057127,61.3295398 C53.6516243,61.3077777 54.8863656,60.5032334 55.6915321,59.3788953 C56.4967205,58.2545572 56.9268835,56.7983472 56.9029262,55.2307154 C56.8789581,53.6622132 56.4076352,52.2092676 55.5679218,51.1072356 C54.7282302,50.0053124 53.4569593,49.2334112 52.0079319,49.2553909 L51.9338485,49.2553909 L51.8349254,49.2553909 C51.3974957,49.3174129 50.9795564,49.4429801 50.5740915,49.6257816 L50.4257177,44.3171386 L50.5493281,44.1690476 C54.1525805,40.2602507 57.004159,32.3317682 57.0512673,25.7492271 C57.0747997,22.457962 56.3747444,19.3758741 54.1834994,17.5023 C52.2336247,15.8351176 49.270322,15.5813825 45.5801741,16.7615622 C44.674058,13.9838714 42.8665323,12.0132167 40.6110092,10.9097049 C37.9799486,9.62244489 34.8862918,9.31685081 31.8840735,9.40352919 C28.8818661,9.4902511 25.9634165,9.97932132 23.6763098,10.4405687 C22.5327674,10.6711924 21.5433293,10.9004342 20.8085311,11.0578503 C20.4411428,11.1365202 20.1354835,11.1932648 19.918539,11.2306956 C19.7558388,11.2588775 19.6197106,11.2737845 19.6218678,11.2800955 C17.0959511,11.1216458 15.7409769,10.4213746 15.147155,9.30478373 C14.549313,8.18064147 14.5349974,6.06952336 15.9382566,2.6874886 L16.9765897,0.218351554 L16.9765788,0.218329792 Z" id="Shape" fill-opacity="0.899999976" fill="#000000" fill-rule="nonzero"></path>
                                <path d="M12.526586,4.53932235 C11.9001674,6.93065994 11.9411311,8.92711363 12.7985265,10.5393359 C13.9788491,12.7587422 16.5172836,13.7186025 19.5229664,13.8973562 C19.8929585,13.9194447 20.0773498,13.8724386 20.3635187,13.8233651 C20.6496985,13.7739652 20.9722118,13.7072971 21.3524121,13.6258416 C22.1128344,13.4629306 23.0870963,13.2567675 24.19546,13.0332491 C26.4121984,12.5861906 29.199771,12.125237 31.9582331,12.0455878 C34.7166953,11.9659385 37.4227108,12.2887573 39.4490549,13.2801617 C41.4754098,14.2715553 42.8995103,15.7865881 43.4293264,18.6381938 L43.7259977,20.2431367 L45.2093322,19.6258443 C49.0890465,18.0626846 51.2128319,18.4456102 52.4776532,19.5270444 C53.7424745,20.6085112 54.4266455,22.8625083 54.4059784,25.7492815 C54.3738393,30.2318032 52.5829606,35.8709687 50.4751575,39.6258424 C50.3038724,38.340911 50.1333825,36.97151 49.7582155,35.378928 C49.2759,33.3315075 48.612102,31.1831109 47.6073788,29.3048363 C46.6026664,27.4265725 45.2349564,25.7692265 43.3057161,24.9591546 C41.0295803,24.00344 38.8237584,24.0731549 36.8037768,24.6875529 C34.7838171,25.3019401 32.9253373,26.3940921 30.9693398,27.5270589 C27.0573448,29.7929925 22.8294496,32.2328922 16.7293582,32.0208968 C16.7348055,32.0210818 16.188909,31.9500612 15.517975,31.7986733 C14.847041,31.647318 13.987543,31.4094693 13.0210272,31.0579246 C11.0880282,30.3548569 8.78354469,29.2167325 6.93936954,27.4776807 C5.09520528,25.7386181 3.67850216,23.4487789 3.35464882,20.2677931 C3.08442967,17.6134825 3.68666223,14.2294892 5.53020549,10.0702433 L6.02464672,11.1566719 L7.70576216,14.8109938 L8.52159455,10.8850593 C9.20198508,7.6181895 10.5612845,5.7059442 12.526586,4.53937675 L12.526586,4.53932235 Z" id="Path" fill="#FFFFFF"></path>
                                <path d="M39.3254445,26.8356557 C39.5168629,26.820531 39.702213,26.8313033 39.8940563,26.8356557 C40.6614512,26.8500187 41.4386404,27.0205028 42.2921137,27.3788591 C43.4158497,27.8507046 44.444759,28.9713976 45.2834919,30.5393558 C46.1222357,32.1073249 46.7379775,34.089568 47.1871081,35.9961551 C47.3750293,36.793877 47.5261921,37.5746244 47.6568294,38.3171468 L48.8682126,80.3418766 L48.8682126,80.366903 C48.4258694,83.7097768 45.9181141,86.1128551 42.0201623,87.7742815 C38.1127649,89.4398426 32.9093331,90.1929196 27.7801808,90.0459167 C22.6510393,89.8989138 17.5917869,88.8666293 13.9604699,87.1324088 C12.1448168,86.2651897 10.7016398,85.20777 9.75769763,84.0952922 C8.81377725,82.9829232 8.34524341,81.8569529 8.37325347,80.5398027 L9.78242841,32.539694 C10.5855468,32.9360034 11.3711357,33.2846429 12.1063153,33.5520445 C13.1900136,33.9461994 14.1751374,34.2168979 14.9493633,34.3915496 C15.7235891,34.5662012 16.2210046,34.6480592 16.6551986,34.6631513 C23.5115614,34.9014352 28.3677819,32.0648018 32.2796243,29.7989444 C34.2355455,28.666032 35.9723325,27.6923528 37.5701695,27.2063511 C38.1693624,27.0241045 38.7511894,26.8811711 39.3254445,26.8359821 L39.3254445,26.8356557 Z" id="Path" fill="#FFFFFF"></path>
                                <path d="M17.5451906,49.3541908 C15.5462574,49.3541908 13.93575,50.9627353 13.93575,52.959189 C13.93575,54.9555339 15.5462574,56.5640784 17.5451906,56.5640784 C19.5441347,56.5640784 21.1793511,54.9555339 21.1793511,52.959189 C21.1793511,50.9627353 19.5441347,49.3541908 17.5451906,49.3541908 Z" id="Path" fill-opacity="0.899999976" fill="#000000"></path>
                                <path d="M39.6962755,49.3541908 C37.6973532,49.3541908 36.0868349,50.9627353 36.0868349,52.959189 C36.0868349,54.9555339 37.6973532,56.5640784 39.6962755,56.5640784 C41.6952195,56.5640784 43.330436,54.9555339 43.330436,52.959189 C43.330436,50.9627353 41.6952195,49.3541908 39.6962755,49.3541908 Z" id="Path" fill-opacity="0.899999976" fill="#000000"></path>
                                <path d="M24.6157416,54.7863337 C24.0782772,54.8588966 23.638397,55.2494188 23.503238,55.7740059 C23.503238,55.7740059 23.0289518,57.3496897 23.4043149,59.1073045 C23.5920291,59.9860575 24.0241204,60.9676363 24.9123693,61.6999305 C25.8006291,62.4321158 27.0556453,62.8356937 28.6207004,62.8356937 C30.1815392,62.8356937 31.4424385,62.4318982 32.3290314,61.6999305 C33.2156243,60.9678539 33.6726643,59.9850782 33.8618057,59.1073045 C34.2400886,57.3517571 33.7381954,55.7740059 33.7381954,55.7740059 C33.6072044,55.3135472 33.2396186,54.9582381 32.7745475,54.842542 C32.3094765,54.7268459 31.8179677,54.8684374 31.4860283,55.2137325 C31.1540889,55.5590277 31.0324284,56.0552766 31.167088,56.5146785 C31.167088,56.5146785 31.4418719,57.6085497 31.2411713,58.5394229 C31.1408319,59.004805 30.9566693,59.3750869 30.6231198,59.6504861 C30.2895594,59.9258853 29.7346312,60.1936677 28.6206241,60.1936677 C27.5006794,60.1936677 26.9519067,59.9256677 26.6181175,59.6504861 C26.2843283,59.3753045 26.0992614,59.0038257 26.000066,58.5394229 C25.801675,57.6106171 26.0741493,56.5146785 26.0741493,56.5146785 C26.2044055,56.0997316 26.1235716,55.6474028 25.8576299,55.3030826 C25.5916882,54.9587624 25.1741533,54.765843 24.7392321,54.7863337 C24.6980508,54.7844248 24.6568031,54.7844248 24.6156218,54.7863337 L24.6157416,54.7863337 Z" id="Path" fill-opacity="0.899999976" fill="#000000"></path>
                                <path d="M5.99992684,30.1442978 C6.38659853,30.4620351 6.78744412,30.7564435 7.18659015,31.0331919 L6.88992977,41.5517217 C6.07690819,40.2275314 5.41466809,38.6369841 5.10992391,36.9591274 C4.70115793,34.7085143 4.88157276,32.3390694 5.99992684,30.1442978 Z" id="Path" fill="#FFFFFF"></path>
                                <path d="M5.10992391,51.8974169 C5.72671167,51.9931701 5.9961573,52.1226545 6.56853861,52.7615893 L6.39548854,58.0208324 C5.97912902,58.5034066 5.53010744,58.7189601 5.08520402,58.7122138 C4.60519816,58.7013328 4.13257884,58.4263688 3.70075986,57.8233414 C3.26895177,57.2203141 2.96790086,56.2972752 2.98381789,55.2554154 C2.99972403,54.2145349 3.32249881,53.3059678 3.7749304,52.7121893 C4.19636681,52.1592148 4.66412713,51.9233138 5.10992391,51.8974169 L5.10992391,51.8974169 Z" id="Path" fill="#FFFFFF"></path>
                                <path d="M52.1315422,51.8974169 C52.5846819,51.9159147 53.0378652,52.1496394 53.4665357,52.7121893 C53.9189673,53.3059678 54.2664728,54.2145349 54.2823681,55.2554154 C54.2982742,56.2972752 53.9725252,57.2203141 53.5407062,57.8233414 C53.1088981,58.4263688 52.6362897,58.7049235 52.1562621,58.7122138 C51.7074039,58.7230949 51.2406241,58.5127643 50.8212686,58.0208324 L50.6729275,52.7615893 C51.2453197,52.1226545 51.5147653,51.9937141 52.1315422,51.8974169 Z" id="Path" fill="#FFFFFF"></path>
                            </g>
                            <path d="M15.085213,61.076013 C14.5851961,61.1200873 14.1521988,61.4379719 13.9639619,61.8991785 C13.7757251,62.3603851 13.8639575,62.8872226 14.1924407,63.2634296 C14.1924407,63.2634296 19.148173,69.0883092 28.6007273,69.0883092 C36.9784512,69.0883092 42.8850191,63.3862525 42.8850191,63.3862525 C43.230557,63.0569755 43.3725974,62.5700147 43.257635,62.1088034 C43.1426727,61.6475921 42.7881732,61.2821994 42.327673,61.1502652 C41.8671727,61.0183309 41.3706328,61.1398991 41.0250949,61.4691761 C41.0250949,61.4691761 35.7382614,66.4584486 28.6007273,66.4584486 C20.2276153,66.4584486 16.250772,61.5921073 16.250772,61.5921073 C16.0013526,61.271431 15.6177122,61.0813374 15.209208,61.076013 C15.1678985,61.0741129 15.1265224,61.0741129 15.085213,61.076013 L15.085213,61.076013 Z" id="Path-Copy-2" fill-opacity="0.899999976" fill="#000000"></path>
                        </g>
                    </g>
                </g>
            </g>
        </g>
    </g>
</svg>